﻿{
  "editable": true,
  "deletable": true,
  "insertable": true,

  "gridOptions": {
    "columnDefs": [
      {
        "name": "C",
        "displayName": "Code",
        "field": "Code",
        "editable": "new"
      },

      {
        "name": "N",
        "displayName": "Name",
        "field": "Name"
      },
      {
        "name": "RV",
        "displayName": "Timestamp",
        "field": "Rowversion",
        "editable": false
      },
      {
        "name": "dShort",
        "displayName": "Short Name",
        "field": "dShort",
        "editable": true
      },
      {
        "name": "district",
        "displayName": "Census Code",
        "field": "censusCode",
        "editable": true
      }



    ]
  }
}
