﻿{
  "editable": true,
  "deletable": true,
  "insertable": true,

  "gridOptions": {
    "columnDefs": [
      {
        "name": "C",
        "displayName": "Code",
        "field": "Code",
        "editable": "new",
        "maxlength":  10
      },

      {
        "name": "N",
        "displayName": "Description",
        "field": "Description",
        "maxlength":  50
      },
      {
        "name": "RV",
        "displayName": "Timestamp",
        "field": "Rowversion",
        "editable": false
      }

    ]
  }
}
